[
    {
        "_id": 101,
        "accounttype": "savings account",
        "accountNumber": "7689543245",
        "date": "2018-12-12"
      },
      {
        "_id": 102,
        "accounttype": "savings account",
        "accountNumber": "6754343245",
        "date": "2018-1-1"
      },
      {
        "_id": 103,
        "accounttype": "checking account",
        "accountNumber": "7689546545",
        "date": "2018-10-10"
      },
      {
        "_id": 104,
        "accounttype": "checking account",
        "accountNumber": "5678345245",
        "date": "2018-5-4"
      }
      
      
      

]